{
  "project_info": {
    "project_number": "883184344685",
    "firebase_url": "https://tratoenterprise-1573795446310.firebaseio.com",
    "project_id": "tratoenterprise-1573795446310",
    "storage_bucket": "tratoenterprise-1573795446310.appspot.com"
  },
  "client": [
    {
      "client_info": {
        "mobilesdk_app_id": "1:883184344685:android:1f0814fd79bcd85daa2964",
        "android_client_info": {
          "package_name": "com.mobile.trato.io.tratoapp"
        }
      },
      "oauth_client": [
        {
          "client_id": "883184344685-uv550vii021lflrjqc6jhrfr208g4tmb.apps.googleusercontent.com",
          "client_type": 1,
          "android_info": {
            "package_name": "com.mobile.trato.io.tratoapp",
            "certificate_hash": "6054756b750e9013f4cffac5e4e6ada01d51c12c"
          }
        },
        {
          "client_id": "883184344685-nosj6i1sbgv6b142sagaph5od36q9mc4.apps.googleusercontent.com",
          "client_type": 3
        }
      ],
      "api_key": [
        {
          "current_key": "AIzaSyCyb9_R9nIyJQLf_QJWQRx2YD49_LMgi_k"
        }
      ],
      "services": {
        "appinvite_service": {
          "other_platform_oauth_client": [
            {
              "client_id": "883184344685-nosj6i1sbgv6b142sagaph5od36q9mc4.apps.googleusercontent.com",
              "client_type": 3
            },
            {
              "client_id": "883184344685-qncirbj060sdn5ri4c2tir4mpaatrrhj.apps.googleusercontent.com",
              "client_type": 2,
              "ios_info": {
                "bundle_id": "b"
              }
            }
          ]
        }
      }
    }
  ],
  "configuration_version": "1"
}